{
  "products": [
    {
      "id": 1,
      "title": "iPhone 9",
      "price": 549
    },
    {
      "id": 2,
      "title": "iPhone X",
      "price": 899
    },
    {
      "id": 3,
      "title": "Samsung Universe 9",
      "price": 1249
    },
    {
      "id": 4,
      "title": "OPPOF19",
      "price": 280
    },
    {
      "id": 5,
      "title": "Huawei P30",
      "price": 499
    },
    {
      "id": 6,
      "title": "MacBook Pro",
      "price": 1749
    },
    {
      "id": 7,
      "title": "Samsung Galaxy Book",
      "price": 1499
    },
    {
      "id": 8,
      "title": "Microsoft Surface Laptop 4",
      "price": 1499
    },
    {
      "id": 9,
      "title": "Infinix INBOOK",
      "price": 1099
    },
    {
      "id": 10,
      "title": "HP Pavilion 15-DK1056WM",
      "price": 1099
    },
    {
      "id": 11,
      "title": "perfume Oil",
      "price": 13
    },
    {
      "id": 12,
      "title": "Brown Perfume",
      "price": 40
    },
    {
      "id": 13,
      "title": "Fog Scent Xpressio Perfume",
      "price": 13
    },
    {
      "id": 14,
      "title": "Non-Alcoholic Concentrated Perfume Oil",
      "price": 120
    },
    {
      "id": 15,
      "title": "Eau De Perfume Spray",
      "price": 30
    },
    {
      "id": 16,
      "title": "Hyaluronic Acid Serum",
      "price": 19
    },
    {
      "id": 17,
      "title": "Tree Oil 30ml",
      "price": 12
    },
    {
      "id": 18,
      "title": "Oil Free Moisturizer 100ml",
      "price": 40
    },
    {
      "id": 19,
      "title": "Skin Beauty Serum.",
      "price": 46
    },
    {
      "id": 20,
      "title": "Freckle Treatment Cream- 15gm",
      "price": 70
    },
    {
      "id": 21,
      "title": "- Daal Masoor 500 grams",
      "price": 20
    },
    {
      "id": 22,
      "title": "Elbow Macaroni - 400 gm",
      "price": 14
    },
    {
      "id": 23,
      "title": "Orange Essence Food Flavou",
      "price": 14
    },
    {
      "id": 24,
      "title": "cereals muesli fruit nuts",
      "price": 46
    },
    {
      "id": 25,
      "title": "Gulab Powder 50 Gram",
      "price": 70
    },
    {
      "id": 26,
      "title": "Plant Hanger For Home",
      "price": 41
    },
    {
      "id": 27,
      "title": "Flying Wooden Bird",
      "price": 51
    },
    {
      "id": 28,
      "title": "3D Embellishment Art Lamp",
      "price": 20
    },
    {
      "id": 29,
      "title": "Handcraft Chinese style",
      "price": 60
    },
    {
      "id": 30,
      "title": "Key Holder",
      "price": 30
    },
    {
      "id": 31,
      "title": "Mornadi Velvet Bed",
      "price": 40
    },
    {
      "id": 32,
      "title": "Sofa for Coffe Cafe",
      "price": 50
    },
    {
      "id": 33,
      "title": "3 Tier Corner Shelves",
      "price": 700
    },
    {
      "id": 34,
      "title": "Plastic Table",
      "price": 50
    },
    {
      "id": 35,
      "title": "3 DOOR PORTABLE",
      "price": 41
    },
    {
      "id": 36,
      "title": "Sleeve Shirt Womens",
      "price": 90
    },
    {
      "id": 37,
      "title": "ank Tops for Womens/Girls",
      "price": 50
    },
    {
      "id": 38,
      "title": "sublimation plain kids tank",
      "price": 100
    },
    {
      "id": 39,
      "title": "Women Sweaters Wool",
      "price": 600
    },
    {
      "id": 40,
      "title": "women winter clothes",
      "price": 57
    },
    {
      "id": 41,
      "title": "NIGHT SUIT",
      "price": 55
    },
    {
      "id": 42,
      "title": "Stiched Kurta plus trouser",
      "price": 80
    },
    {
      "id": 43,
      "title": "frock gold printed",
      "price": 600
    },
    {
      "id": 44,
      "title": "Ladies Multicolored Dress",
      "price": 79
    },
    {
      "id": 45,
      "title": "Malai Maxi Dress",
      "price": 50
    },
    {
      "id": 46,
      "title": "women's shoes",
      "price": 40
    },
    {
      "id": 47,
      "title": "Sneaker shoes",
      "price": 120
    },
    {
      "id": 48,
      "title": "Women Strip Heel",
      "price": 40
    },
    {
      "id": 49,
      "title": "Chappals & Shoe Ladies Metallic",
      "price": 23
    },
    {
      "id": 50,
      "title": "Women Shoes",
      "price": 36
    },
    {
      "id": 51,
      "title": "half sleeves T shirts",
      "price": 23
    },
    {
      "id": 52,
      "title": "FREE FIRE T Shirt",
      "price": 10
    },
    {
      "id": 53,
      "title": "printed high quality T shirts",
      "price": 35
    },
    {
      "id": 54,
      "title": "Pubg Printed Graphic T-Shirt",
      "price": 46
    },
    {
      "id": 55,
      "title": "Money Heist Printed Summer T Shirts",
      "price": 66
    },
    {
      "id": 56,
      "title": "Sneakers Joggers Shoes",
      "price": 40
    },
    {
      "id": 57,
      "title": "Loafers for men",
      "price": 47
    },
    {
      "id": 58,
      "title": "formal offices shoes",
      "price": 57
    },
    {
      "id": 59,
      "title": "Spring and summershoes",
      "price": 20
    },
    {
      "id": 60,
      "title": "Stylish Casual Jeans Shoes",
      "price": 58
    },
    {
      "id": 61,
      "title": "Leather Straps Wristwatch",
      "price": 120
    },
    {
      "id": 62,
      "title": "Waterproof Leather Brand Watch",
      "price": 46
    },
    {
      "id": 63,
      "title": "Royal Blue Premium Watch",
      "price": 50
    },
    {
      "id": 64,
      "title": "Leather Strap Skeleton Watch",
      "price": 46
    },
    {
      "id": 65,
      "title": "Stainless Steel Wrist Watch",
      "price": 47
    },
    {
      "id": 66,
      "title": "Steel Analog Couple Watches",
      "price": 35
    },
    {
      "id": 67,
      "title": "Fashion Magnetic Wrist Watch",
      "price": 60
    },
    {
      "id": 68,
      "title": "Stylish Luxury Digital Watch",
      "price": 57
    },
    {
      "id": 69,
      "title": "Golden Watch Pearls Bracelet Watch",
      "price": 47
    },
    {
      "id": 70,
      "title": "Stainless Steel Women",
      "price": 35
    },
    {
      "id": 71,
      "title": "Women Shoulder Bags",
      "price": 46
    },
    {
      "id": 72,
      "title": "Handbag For Girls",
      "price": 23
    },
    {
      "id": 73,
      "title": "Fancy hand clutch",
      "price": 44
    },
    {
      "id": 74,
      "title": "Leather Hand Bag",
      "price": 57
    },
    {
      "id": 75,
      "title": "Seven Pocket Women Bag",
      "price": 68
    },
    {
      "id": 76,
      "title": "Silver Ring Set Women",
      "price": 70
    },
    {
      "id": 77,
      "title": "Rose Ring",
      "price": 100
    },
    {
      "id": 78,
      "title": "Rhinestone Korean Style Open Rings",
      "price": 30
    },
    {
      "id": 79,
      "title": "Elegant Female Pearl Earrings",
      "price": 30
    },
    {
      "id": 80,
      "title": "Chain Pin Tassel Earrings",
      "price": 45
    },
    {
      "id": 81,
      "title": "Round Silver Frame Sun Glasses",
      "price": 19
    },
    {
      "id": 82,
      "title": "Kabir Singh Square Sunglass",
      "price": 50
    },
    {
      "id": 83,
      "title": "Wiley X Night Vision Yellow Glasses",
      "price": 30
    },
    {
      "id": 84,
      "title": "Square Sunglasses",
      "price": 28
    },
    {
      "id": 85,
      "title": "LouisWill Men Sunglasses",
      "price": 50
    },
    {
      "id": 86,
      "title": "Bluetooth Aux",
      "price": 25
    },
    {
      "id": 87,
      "title": "t Temperature Controller Incubator Controller",
      "price": 40
    },
    {
      "id": 88,
      "title": "TC Reusable Silicone Magic Washing Gloves",
      "price": 29
    },
    {
      "id": 89,
      "title": "Qualcomm original Car Charger",
      "price": 40
    },
    {
      "id": 90,
      "title": "Cycle Bike Glow",
      "price": 35
    },
    {
      "id": 91,
      "title": "Black Motorbike",
      "price": 569
    },
    {
      "id": 92,
      "title": "HOT SALE IN EUROPE electric racing motorcycle",
      "price": 920
    },
    {
      "id": 93,
      "title": "Automatic Motor Gas Motorcycles",
      "price": 1050
    },
    {
      "id": 94,
      "title": "new arrivals Fashion motocross goggles",
      "price": 900
    },
    {
      "id": 95,
      "title": "Wholesale cargo lashing Belt",
      "price": 930
    },
    {
      "id": 96,
      "title": "lighting ceiling kitchen",
      "price": 30
    },
    {
      "id": 97,
      "title": "Metal Ceramic Flower",
      "price": 35
    },
    {
      "id": 98,
      "title": "3 lights lndenpant kitchen islang",
      "price": 34
    },
    {
      "id": 99,
      "title": "American Vintage Wood Pendant Light",
      "price": 46
    },
    {
      "id": 100,
      "title": "Crystal chandelier maria theresa for 12 light",
      "price": 47
    }
  ],
  "total": 100,
  "skip": 0,
  "limit": 100
}
